…
ℹ Use `spec()` to retrieve the full column specification for this data.
ℹ Specify the column types or set `show_col_types = FALSE` to quiet this message.
> 
> am_recipe <- recipe(ACTION ~ .,data = train) %>%
+   step_mutate_at(all_numeric_predictors(), fn = factor) %>%
+   step_other(all_nominal_predictors(), threshold = .01, other = "OTHER") %>%
+   step_dummy(all_nominal_predictors())
>   
> prep(am_recipe) %>%
+   bake(new_data = train)
# A tibble: 32,769 × 112
   ACTION RESOURCE_X4675 RESOURCE_X25993 RESOURCE_X75078 RESOURCE_X79092
    <dbl>          <dbl>           <dbl>           <dbl>           <dbl>
 1      1              0               0               0               0
 2      1              0               0               0               0
 3      1              0               0               0               0
 4      1              0               0               0               0
 5      1              0               0               0               0
 6      0              0               0               0               0
 7      1              0               1               0               0
 8      1              0               0               0               0
 9      1              0               0               0               0
10      1              0               0               0               0
# ℹ 32,759 more rows
# ℹ 107 more variables: RESOURCE_OTHER <dbl>, MGR_ID_OTHER <dbl>,
#   ROLE_ROLLUP_1_X117902 <dbl>, ROLE_ROLLUP_1_X117961 <dbl>,
#   ROLE_ROLLUP_1_X118212 <dbl>, ROLE_ROLLUP_1_X118290 <dbl>,
#   ROLE_ROLLUP_1_X118315 <dbl>, ROLE_ROLLUP_1_X118887 <dbl>,
#   ROLE_ROLLUP_1_X119062 <dbl>, ROLE_ROLLUP_1_OTHER <dbl>,
#   ROLE_ROLLUP_2_X117962 <dbl>, ROLE_ROLLUP_2_X117969 <dbl>, …
…
ℹ Use `spec()` to retrieve the full column specification for this data.
ℹ Specify the column types or set `show_col_types = FALSE` to quiet this message.
> 
> train %>%
+   mutate(ACTION = as_factor(ACTION)) -> train
> 
> am_recipe <- recipe(ACTION ~ .,data = train) %>%
+   step_mutate_at(all_numeric_predictors(), fn = factor) %>%
+   step_other(all_nominal_predictors(), threshold = .01, other = "OTHER")%>%
+   step_dummy(all_nominal_predictors())
> 
> prep(am_recipe) %>%
+   bake(new_data = train)
# A tibble: 32,769 × 112
   ACTION RESOURCE_X4675 RESOURCE_X25993 RESOURCE_X75078 RESOURCE_X79092
   <fct>           <dbl>           <dbl>           <dbl>           <dbl>
 1 1                   0               0               0               0
 2 1                   0               0               0               0
 3 1                   0               0               0               0
 4 1                   0               0               0               0
 5 1                   0               0               0               0
 6 0                   0               0               0               0
 7 1                   0               1               0               0
 8 1                   0               0               0               0
 9 1                   0               0               0               0
10 1                   0               0               0               0
# ℹ 32,759 more rows
# ℹ 107 more variables: RESOURCE_OTHER <dbl>, MGR_ID_OTHER <dbl>,
#   ROLE_ROLLUP_1_X117902 <dbl>, ROLE_ROLLUP_1_X117961 <dbl>,
#   ROLE_ROLLUP_1_X118212 <dbl>, ROLE_ROLLUP_1_X118290 <dbl>,
#   ROLE_ROLLUP_1_X118315 <dbl>, ROLE_ROLLUP_1_X118887 <dbl>,
#   ROLE_ROLLUP_1_X119062 <dbl>, ROLE_ROLLUP_1_OTHER <dbl>,
#   ROLE_ROLLUP_2_X117962 <dbl>, ROLE_ROLLUP_2_X117969 <dbl>, …
…
